{
  "front-version": "2.19.1",
  "version": 3,
  "nodes": [
    {
      "type": "Project",
      "id": "2ef57a0d-c9e1-4c5d-9a0e-de03985f2b66",
      "lastModified": "2019-04-19T17:03:42.932+06:00",
      "name": "Experitest"
    },
    {
      "type": "Scenario",
      "id": "71800bd9-67f4-4a28-a006-6ff705fe4ce3",
      "lastModified": "2019-04-19T16:55:48.871+06:00",
      "name": "CrossplatformTesting",
      "requestOrder": [
        "Send Desktop Chrome",
        "Waiting for Chrome test finish",
        "Send Desktop FireFox",
        "Waiting for FireFox test finish",
        "Send iPhone iOS12.0",
        "Waiting for iPhone test finish",
        "Send Android 9.0.0",
        "Waiting for Android test finish",
        "Check if test-set passed"
      ],
      "parentId": "2ef57a0d-c9e1-4c5d-9a0e-de03985f2b66"
    },
    {
      "type": "Request",
      "method": {
        "link": "http://tools.ietf.org/html/rfc7231#section-4.3.1",
        "name": "GET"
      },
      "body": {
        "formBody": {
          "overrideContentType": true,
          "encoding": "application/x-www-form-urlencoded",
          "items": []
        },
        "bodyType": "Text",
        "autoSetLength": true
      },
      "headersType": "Form",
      "uri": {
        "query": {
          "delimiter": "&",
          "items": [
            {
              "enabled": true,
              "name": "apptype",
              "value": "Native"
            },
            {
              "enabled": true,
              "name": "browser",
              "value": "chrome"
            },
            {
              "enabled": true,
              "name": "browserversion",
              "value": "Any"
            },
            {
              "enabled": true,
              "name": "buildsystem",
              "value": "Gradle"
            },
            {
              "enabled": true,
              "name": "desktopos",
              "value": "Any"
            },
            {
              "enabled": true,
              "name": "formfactor",
              "value": "PHONE"
            },
            {
              "enabled": true,
              "name": "framework",
              "value": "Selenium"
            },
            {
              "enabled": true,
              "encoded": true,
              "name": "language",
              "value": "Java+Junit"
            },
            {
              "enabled": true,
              "name": "mode",
              "value": "browser"
            },
            {
              "enabled": true,
              "name": "os",
              "value": "iOS"
            },
            {
              "enabled": true,
              "name": "osversion",
              "value": "Any"
            }
          ]
        },
        "scheme": {
          "secure": true,
          "name": "https",
          "version": "V11"
        },
        "host": "cloud.seetest.io",
        "path": "/api/v2/quickstart/run-test"
      },
      "id": "11d269ea-7e23-4418-b755-69e74464cadb",
      "lastModified": "2019-04-19T16:55:48.871+06:00",
      "name": "Send Desktop Chrome",
      "headers": [],
      "metaInfo": {},
      "parentId": "71800bd9-67f4-4a28-a006-6ff705fe4ce3"
    },
    {
      "type": "Request",
      "method": {
        "link": "http://tools.ietf.org/html/rfc7231#section-4.3.1",
        "name": "GET"
      },
      "body": {
        "formBody": {
          "overrideContentType": true,
          "encoding": "application/x-www-form-urlencoded",
          "items": []
        },
        "bodyType": "Text",
        "autoSetLength": true
      },
      "headersType": "Form",
      "retryConfiguration": {
        "enabled": true,
        "intervalInSeconds": 20,
        "retryCount": 9
      },
      "uri": {
        "query": {
          "delimiter": "&",
          "items": []
        },
        "scheme": {
          "secure": true,
          "name": "https",
          "version": "V11"
        },
        "host": "cloud.seetest.io",
        "path": "/api/v2/test-requests/latest-for-notif-bar"
      },
      "id": "11977ab2-0276-4fe8-ac87-b18772fe8ac5",
      "lastModified": "2019-04-19T16:55:48.872+06:00",
      "name": "Waiting for Chrome test finish",
      "headers": [
        {
          "enabled": true,
          "name": "Cache-Control",
          "value": "no-cache"
        },
        {
          "enabled": true,
          "name": "Pragma",
          "value": "no-cache"
        }
      ],
      "assertions": [
        {
          "comparison": "DoesNotContain",
          "subject": "ResponseBody",
          "path": "content",
          "value": "\"reportStatus\" : null,"
        }
      ],
      "metaInfo": {},
      "parentId": "71800bd9-67f4-4a28-a006-6ff705fe4ce3"
    },
    {
      "type": "Request",
      "method": {
        "link": "http://tools.ietf.org/html/rfc7231#section-4.3.1",
        "name": "GET"
      },
      "body": {
        "formBody": {
          "overrideContentType": true,
          "encoding": "application/x-www-form-urlencoded",
          "items": []
        },
        "bodyType": "Text",
        "autoSetLength": true
      },
      "headersType": "Form",
      "uri": {
        "query": {
          "delimiter": "&",
          "items": [
            {
              "enabled": true,
              "name": "apptype",
              "value": "Native"
            },
            {
              "enabled": true,
              "name": "browser",
              "value": "firefox"
            },
            {
              "enabled": true,
              "name": "browserversion",
              "value": "Any"
            },
            {
              "enabled": true,
              "name": "buildsystem",
              "value": "Gradle"
            },
            {
              "enabled": true,
              "name": "desktopos",
              "value": "Any"
            },
            {
              "enabled": true,
              "name": "formfactor",
              "value": "PHONE"
            },
            {
              "enabled": true,
              "name": "framework",
              "value": "Selenium"
            },
            {
              "enabled": true,
              "encoded": true,
              "name": "language",
              "value": "Java+Junit"
            },
            {
              "enabled": true,
              "name": "mode",
              "value": "browser"
            },
            {
              "enabled": true,
              "name": "os",
              "value": "iOS"
            },
            {
              "enabled": true,
              "name": "osversion",
              "value": "Any"
            }
          ]
        },
        "scheme": {
          "secure": true,
          "name": "https",
          "version": "V11"
        },
        "host": "cloud.seetest.io",
        "path": "/api/v2/quickstart/run-test"
      },
      "id": "62df7c3d-fbc8-4b05-8be6-a429661de848",
      "lastModified": "2019-04-19T16:55:48.872+06:00",
      "name": "Send Desktop FireFox",
      "headers": [],
      "metaInfo": {},
      "parentId": "71800bd9-67f4-4a28-a006-6ff705fe4ce3"
    },
    {
      "type": "Request",
      "method": {
        "link": "http://tools.ietf.org/html/rfc7231#section-4.3.1",
        "name": "GET"
      },
      "body": {
        "formBody": {
          "overrideContentType": true,
          "encoding": "application/x-www-form-urlencoded",
          "items": []
        },
        "bodyType": "Text",
        "autoSetLength": true
      },
      "headersType": "Form",
      "retryConfiguration": {
        "enabled": true,
        "intervalInSeconds": 20,
        "retryCount": 9
      },
      "uri": {
        "query": {
          "delimiter": "&",
          "items": []
        },
        "scheme": {
          "secure": true,
          "name": "https",
          "version": "V11"
        },
        "host": "cloud.seetest.io",
        "path": "/api/v2/test-requests/latest-for-notif-bar"
      },
      "id": "c00e904d-7995-44fc-8732-af7d36a4a421",
      "lastModified": "2019-04-19T16:55:48.872+06:00",
      "name": "Waiting for FireFox test finish",
      "headers": [
        {
          "enabled": true,
          "name": "Cache-Control",
          "value": "no-cache"
        },
        {
          "enabled": true,
          "name": "Pragma",
          "value": "no-cache"
        }
      ],
      "assertions": [
        {
          "comparison": "DoesNotContain",
          "subject": "ResponseBody",
          "path": "content",
          "value": "\"reportStatus\" : null,"
        }
      ],
      "metaInfo": {},
      "parentId": "71800bd9-67f4-4a28-a006-6ff705fe4ce3"
    },
    {
      "type": "Request",
      "method": {
        "link": "http://tools.ietf.org/html/rfc7231#section-4.3.1",
        "name": "GET"
      },
      "body": {
        "formBody": {
          "overrideContentType": true,
          "encoding": "application/x-www-form-urlencoded",
          "items": []
        },
        "bodyType": "Text",
        "autoSetLength": true
      },
      "headersType": "Form",
      "uri": {
        "query": {
          "delimiter": "&",
          "items": [
            {
              "enabled": true,
              "name": "apptype",
              "value": "Web"
            },
            {
              "enabled": true,
              "name": "browser",
              "value": "firefox"
            },
            {
              "enabled": true,
              "name": "browserversion",
              "value": "Any"
            },
            {
              "enabled": true,
              "name": "buildsystem",
              "value": "Gradle"
            },
            {
              "enabled": true,
              "name": "desktopos",
              "value": "Any"
            },
            {
              "enabled": true,
              "name": "formfactor",
              "value": "PHONE"
            },
            {
              "enabled": true,
              "name": "framework",
              "value": "Appium"
            },
            {
              "enabled": true,
              "encoded": true,
              "name": "language",
              "value": "Java+Junit"
            },
            {
              "enabled": true,
              "name": "mode",
              "value": "mobile"
            },
            {
              "enabled": true,
              "name": "os",
              "value": "iOS"
            },
            {
              "enabled": true,
              "name": "osversion",
              "value": "Any"
            },
            {
              "enabled": true,
              "name": "uploadEribank",
              "value": "true"
            }
          ]
        },
        "scheme": {
          "secure": true,
          "name": "https",
          "version": "V11"
        },
        "host": "cloud.seetest.io",
        "path": "/api/v2/quickstart/run-test"
      },
      "id": "189adffe-da6d-4c4d-8453-0a4283c0a3ff",
      "lastModified": "2019-04-19T16:55:48.872+06:00",
      "name": "Send iPhone iOS12.0",
      "headers": [],
      "metaInfo": {},
      "parentId": "71800bd9-67f4-4a28-a006-6ff705fe4ce3"
    },
    {
      "type": "Request",
      "method": {
        "link": "http://tools.ietf.org/html/rfc7231#section-4.3.1",
        "name": "GET"
      },
      "body": {
        "formBody": {
          "overrideContentType": true,
          "encoding": "application/x-www-form-urlencoded",
          "items": []
        },
        "bodyType": "Text",
        "autoSetLength": true
      },
      "headersType": "Form",
      "retryConfiguration": {
        "enabled": true,
        "intervalInSeconds": 40,
        "retryCount": 9
      },
      "uri": {
        "query": {
          "delimiter": "&",
          "items": []
        },
        "scheme": {
          "secure": true,
          "name": "https",
          "version": "V11"
        },
        "host": "cloud.seetest.io",
        "path": "/api/v2/test-requests/latest-for-notif-bar"
      },
      "id": "41a1c9fd-7e9f-48a0-9507-699dbc3d90d7",
      "lastModified": "2019-04-19T17:03:37.983+06:00",
      "name": "Waiting for iPhone test finish",
      "headers": [
        {
          "enabled": true,
          "name": "Cache-Control",
          "value": "no-cache"
        },
        {
          "enabled": true,
          "name": "Pragma",
          "value": "no-cache"
        }
      ],
      "assertions": [
        {
          "comparison": "DoesNotContain",
          "subject": "ResponseBody",
          "path": "content",
          "value": "\"reportStatus\" : null,"
        }
      ],
      "metaInfo": {},
      "parentId": "71800bd9-67f4-4a28-a006-6ff705fe4ce3"
    },
    {
      "type": "Request",
      "method": {
        "link": "http://tools.ietf.org/html/rfc7231#section-4.3.1",
        "name": "GET"
      },
      "body": {
        "formBody": {
          "overrideContentType": true,
          "encoding": "application/x-www-form-urlencoded",
          "items": []
        },
        "bodyType": "Text",
        "autoSetLength": true
      },
      "headersType": "Form",
      "uri": {
        "query": {
          "delimiter": "&",
          "items": [
            {
              "enabled": true,
              "name": "apptype",
              "value": "Native"
            },
            {
              "enabled": true,
              "name": "browser",
              "value": "safari"
            },
            {
              "enabled": true,
              "name": "browserversion",
              "value": "Any"
            },
            {
              "enabled": true,
              "name": "buildsystem",
              "value": "Gradle"
            },
            {
              "enabled": true,
              "name": "desktopos",
              "value": "Any"
            },
            {
              "enabled": true,
              "name": "formfactor",
              "value": "PHONE"
            },
            {
              "enabled": true,
              "name": "framework",
              "value": "Appium"
            },
            {
              "enabled": true,
              "encoded": true,
              "name": "language",
              "value": "Java+Junit"
            },
            {
              "enabled": true,
              "name": "mode",
              "value": "mobile"
            },
            {
              "enabled": true,
              "name": "os",
              "value": "Android"
            },
            {
              "enabled": true,
              "encoded": true,
              "name": "osversion",
              "value": "Android+9"
            },
            {
              "enabled": true,
              "name": "uploadEribank",
              "value": "true"
            }
          ]
        },
        "scheme": {
          "secure": true,
          "name": "https",
          "version": "V11"
        },
        "host": "cloud.seetest.io",
        "path": "/api/v2/quickstart/run-test"
      },
      "description": "",
      "id": "c6d8e90e-ed45-43df-8924-b07606b19c32",
      "lastModified": "2019-04-19T16:55:48.872+06:00",
      "name": "Send Android 9.0.0",
      "headers": [],
      "metaInfo": {},
      "parentId": "71800bd9-67f4-4a28-a006-6ff705fe4ce3"
    },
    {
      "type": "Request",
      "method": {
        "link": "http://tools.ietf.org/html/rfc7231#section-4.3.1",
        "name": "GET"
      },
      "body": {
        "formBody": {
          "overrideContentType": true,
          "encoding": "application/x-www-form-urlencoded",
          "items": []
        },
        "bodyType": "Text",
        "autoSetLength": true
      },
      "headersType": "Form",
      "retryConfiguration": {
        "enabled": true,
        "intervalInSeconds": 40,
        "retryCount": 9
      },
      "uri": {
        "query": {
          "delimiter": "&",
          "items": []
        },
        "scheme": {
          "secure": true,
          "name": "https",
          "version": "V11"
        },
        "host": "cloud.seetest.io",
        "path": "/api/v2/test-requests/latest-for-notif-bar"
      },
      "id": "a1d5f5f7-7b5e-4ab1-9b0e-d146a4b4c4a0",
      "lastModified": "2019-04-19T17:03:42.932+06:00",
      "name": "Waiting for Android test finish",
      "headers": [
        {
          "enabled": true,
          "name": "cache-control",
          "value": "no-cache"
        },
        {
          "enabled": true,
          "name": "pragma",
          "value": "no-cache"
        }
      ],
      "assertions": [
        {
          "comparison": "DoesNotContain",
          "subject": "ResponseBody",
          "path": "content",
          "value": "\"reportStatus\" : null,"
        }
      ],
      "metaInfo": {},
      "parentId": "71800bd9-67f4-4a28-a006-6ff705fe4ce3"
    },
    {
      "type": "Request",
      "method": {
        "link": "http://tools.ietf.org/html/rfc7231#section-4.3.1",
        "name": "GET"
      },
      "body": {
        "formBody": {
          "overrideContentType": true,
          "encoding": "application/x-www-form-urlencoded",
          "items": []
        },
        "bodyType": "Text",
        "autoSetLength": true
      },
      "headersType": "Form",
      "retryConfiguration": {
        "intervalInSeconds": 30,
        "retryCount": 9
      },
      "uri": {
        "query": {
          "delimiter": "&",
          "items": []
        },
        "scheme": {
          "secure": true,
          "name": "https",
          "version": "V11"
        },
        "host": "cloud.seetest.io",
        "path": "/api/v2/test-requests/latest-for-notif-bar"
      },
      "id": "70daf576-fed4-4445-aaa3-f1780fdec710",
      "lastModified": "2019-04-19T16:55:48.873+06:00",
      "name": "Check if test-set passed",
      "headers": [
        {
          "enabled": true,
          "name": "cache-control",
          "value": "no-cache"
        },
        {
          "enabled": true,
          "name": "pragma",
          "value": "no-cache"
        }
      ],
      "assertions": [
        {
          "comparison": "DoesNotContain",
          "subject": "ResponseBody",
          "path": "content",
          "value": "\"reportStatus\" : \"Failed\","
        }
      ],
      "metaInfo": {},
      "parentId": "71800bd9-67f4-4a28-a006-6ff705fe4ce3"
    }
  ]
}